ML Project
…
该数据展现了2023年的数据科学领域中不同数据科学岗位的薪资情况 ，来自kaggle

ds_salaries <- read.csv("/Users/keep-rational/Desktop/机器学习与预测大作业/ds_salaries.csv")

一、数据的初步探索与可视化

#在职工的住所地点中，住在美国的占了绝大部分
n_total = nrow(ds_salaries)
ds_salaries |>
  group_by(employee_residence) |>
  summarise(prop = round(n() / n_total,4)) |>
  arrange(desc(prop)) 

# A tibble: 78 × 2
   employee_residence   prop
   <chr>               <dbl>
 1 US                 0.8   
 2 GB                 0.0445
 3 CA                 0.0226
 4 ES                 0.0213
 5 IN                 0.0189
 6 DE                 0.0128
 7 FR                 0.0101
 8 BR                 0.0048
 9 PT                 0.0048
10 GR                 0.0043
# ℹ 68 more rows
…
